## Interface: 60000
## Title: Hack
## Version: release_v1.4.5
## Notes: Notebook / coding framework.
## Author: Mud, aka Eric Tetz <erictetz@gmail.com> & drizz
## X-Maintainer: drizz
## SavedVariables: HackDB

Hack.lua
Hack.xml
Indent.lua